00000000000000000000000000000000000000000000000000111000000000000000000000000000000000
00000000000000000011110000000001110000000000000000001010000000000000000000000000000000
00000001000000000000011000000000000000000000000000000001000000000000000000000000000000
00000000000000000000000111000000111111111100000000000001110000011110001000000000000000
00000000000000000000000000000000001000000000001000000010000000000000010000000000000000
00000000000001101101110000000000010000000000000010000100000000000000000000000000000000
00001110000010000000000000000100011000000000101000000101011000000000000000000000000000
00000100000000000101010000000000000000001100000010010010001001000000000000010000000000
00001010000100001000000010010100000000011000000000000000000010000100000001000000000000
00000000001100001000000000000000000000000000100000000000000000000000000000000000000000
00000000000010000000000000000000000000000000000000110000000000000000010000000000000000
01010000000100000000000011000100001000000100000000000000000001010000000000000000000000
11011101000000000010100000000000000000000000000000000000000000000000010000000000000000
00001100000000000000000000001000000000000000110000000001100000001000000010000000000000
00000000000000000000000000000011100100000000000000000000000000010100000010001000000001
00000000000110000000100000000001001100000000000000000010000000100000010000000000000000
00000000000111000000000001100000000000000000000000000000000000000000000100110001000000
00000000000001100000000000000001000000000000100000000000000100000000000000000010000000
00000000000000101101000000000000000000000001100000000000110000000000100000000011000110
00000000000000001010000001000000100000000000101100000000101000001000100010000000000000
00000000000000000000000000000000000010000000010100000000000000000000000000000000000000
00000000000000000000000000000000000000100000000000000000000000000000000000000000000000
00000000000000000010000000000000000000000000000000000000000000000000000001100000000000